{
  "__inputs": [
    {
      "name": "DS_PLOTPAD_ANALYTICS_DEV_VESELOV",
      "label": "plotpad_analytics_dev_veselov",
      "description": "",
      "type": "datasource",
      "pluginId": "postgres",
      "pluginName": "PostgreSQL"
    },
    {
      "name": "DS_PLOTPAD_ANALYTICS",
      "label": "plotpad_analytics",
      "description": "",
      "type": "datasource",
      "pluginId": "postgres",
      "pluginName": "PostgreSQL"
    }
  ],
  "__requires": [
    {
      "type": "grafana",
      "id": "grafana",
      "name": "Grafana",
      "version": "6.4.2"
    },
    {
      "type": "panel",
      "id": "graph",
      "name": "Graph",
      "version": ""
    },
    {
      "type": "datasource",
      "id": "postgres",
      "name": "PostgreSQL",
      "version": "1.0.0"
    },
    {
      "type": "panel",
      "id": "table",
      "name": "Table",
      "version": ""
    }
  ],
  "annotations": {
    "list": [
      {
        "builtIn": 1,
        "datasource": "-- Grafana --",
        "enable": true,
        "hide": true,
        "iconColor": "rgba(0, 211, 255, 1)",
        "name": "Annotations & Alerts",
        "type": "dashboard"
      }
    ]
  },
  "editable": true,
  "gnetId": null,
  "graphTooltip": 0,
  "id": null,
  "iteration": 1579095955455,
  "links": [],
  "panels": [
    {
      "aliasColors": {},
      "bars": true,
      "cacheTimeout": null,
      "dashLength": 10,
      "dashes": false,
      "datasource": "${DS_PLOTPAD_ANALYTICS_DEV_VESELOV}",
      "decimals": 0,
      "fill": 1,
      "fillGradient": 0,
      "gridPos": {
        "h": 8,
        "w": 11,
        "x": 0,
        "y": 0
      },
      "id": 2,
      "legend": {
        "alignAsTable": false,
        "avg": false,
        "current": false,
        "hideEmpty": false,
        "hideZero": false,
        "max": false,
        "min": false,
        "rightSide": false,
        "show": false,
        "sort": null,
        "sortDesc": null,
        "total": true,
        "values": true
      },
      "lines": false,
      "linewidth": 1,
      "links": [],
      "maxPerRow": null,
      "nullPointMode": "connected",
      "options": {
        "dataLinks": []
      },
      "percentage": false,
      "pluginVersion": "6.4.2",
      "pointradius": 2,
      "points": false,
      "renderer": "flot",
      "repeat": null,
      "repeatDirection": "h",
      "seriesOverrides": [],
      "spaceLength": 10,
      "stack": true,
      "steppedLine": false,
      "targets": [
        {
          "format": "time_series",
          "group": [],
          "metricColumn": "name",
          "rawQuery": true,
          "rawSql": "SELECT\n  $__timeTo()::timestamp AS \"time\",\n  COUNT(entity_id) FILTER (WHERE state = 'OPENED') AS \"Открытые\",\n  COUNT(entity_id) FILTER (WHERE state = 'COMPLETED') AS \"Выполненные\",\n  COUNT(entity_id) FILTER (WHERE state = 'VERIFIED') AS \"Проверенные\"\nFROM plotpad_analytics.entity_last_author_doer_state($__timeTo())\nWHERE author='$name'",
          "refId": "A",
          "select": [
            [
              {
                "params": [
                  "\"Открытые\""
                ],
                "type": "column"
              }
            ],
            [
              {
                "params": [
                  "\"Выполненные\""
                ],
                "type": "column"
              }
            ],
            [
              {
                "params": [
                  "\"Проверенные\""
                ],
                "type": "column"
              }
            ]
          ],
          "table": "plotpad_analytics.authors_rating_by_status",
          "timeColumn": "date",
          "timeColumnType": "timestamp",
          "where": [
            {
              "name": "$__timeFilter",
              "params": [],
              "type": "macro"
            }
          ]
        }
      ],
      "thresholds": [],
      "timeFrom": null,
      "timeRegions": [],
      "timeShift": null,
      "title": "Количество замечаний автора по состояниям",
      "tooltip": {
        "shared": false,
        "sort": 0,
        "value_type": "cumulative"
      },
      "type": "graph",
      "xaxis": {
        "buckets": null,
        "mode": "series",
        "name": null,
        "show": true,
        "values": [
          "total"
        ]
      },
      "yaxes": [
        {
          "decimals": null,
          "format": "none",
          "label": "",
          "logBase": 1,
          "max": null,
          "min": null,
          "show": true
        },
        {
          "format": "short",
          "label": null,
          "logBase": 1,
          "max": null,
          "min": null,
          "show": true
        }
      ],
      "yaxis": {
        "align": false,
        "alignLevel": null
      }
    },
    {
      "aliasColors": {},
      "bars": true,
      "cacheTimeout": null,
      "dashLength": 10,
      "dashes": false,
      "datasource": "${DS_PLOTPAD_ANALYTICS_DEV_VESELOV}",
      "decimals": 0,
      "fill": 1,
      "fillGradient": 0,
      "gridPos": {
        "h": 8,
        "w": 13,
        "x": 11,
        "y": 0
      },
      "id": 4,
      "legend": {
        "alignAsTable": false,
        "avg": false,
        "current": false,
        "hideEmpty": false,
        "hideZero": false,
        "max": false,
        "min": false,
        "rightSide": false,
        "show": false,
        "sort": "current",
        "sortDesc": false,
        "total": true,
        "values": true
      },
      "lines": false,
      "linewidth": 1,
      "links": [],
      "nullPointMode": "null",
      "options": {
        "dataLinks": []
      },
      "percentage": false,
      "pluginVersion": "6.4.2",
      "pointradius": 2,
      "points": false,
      "renderer": "flot",
      "seriesOverrides": [],
      "spaceLength": 10,
      "stack": false,
      "steppedLine": false,
      "targets": [
        {
          "format": "time_series",
          "group": [],
          "metricColumn": "none",
          "rawQuery": true,
          "rawSql": "SELECT\n  $__timeTo()::timestamp AS \"time\",\n  COUNT(entity_id) FILTER (WHERE state = 'OPENED') AS \"Открытые\",\n  COUNT(entity_id) FILTER (WHERE state = 'COMPLETED') AS \"Выполненные\",\n  COUNT(entity_id) FILTER (WHERE state = 'VERIFIED') AS \"Проверенные\"\nFROM plotpad_analytics.entity_last_author_doer_state($__timeTo())\nWHERE assigned_user='$name'",
          "refId": "A",
          "select": [
            [
              {
                "params": [
                  "\"Открытые\""
                ],
                "type": "column"
              }
            ],
            [
              {
                "params": [
                  "\"Выполненные\""
                ],
                "type": "column"
              }
            ],
            [
              {
                "params": [
                  "\"Проверенные\""
                ],
                "type": "column"
              }
            ]
          ],
          "table": "plotpad_analytics.doers_rating_by_status",
          "timeColumn": "date",
          "timeColumnType": "timestamptz",
          "where": [
            {
              "name": "$__timeFilter",
              "params": [],
              "type": "macro"
            }
          ]
        }
      ],
      "thresholds": [],
      "timeFrom": null,
      "timeRegions": [],
      "timeShift": null,
      "title": "Количество замечаний исполнителя по состояниям",
      "tooltip": {
        "shared": false,
        "sort": 0,
        "value_type": "individual"
      },
      "type": "graph",
      "xaxis": {
        "buckets": null,
        "mode": "series",
        "name": null,
        "show": true,
        "values": [
          "total"
        ]
      },
      "yaxes": [
        {
          "format": "short",
          "label": null,
          "logBase": 1,
          "max": null,
          "min": null,
          "show": true
        },
        {
          "format": "short",
          "label": null,
          "logBase": 1,
          "max": null,
          "min": null,
          "show": true
        }
      ],
      "yaxis": {
        "align": false,
        "alignLevel": 1
      }
    },
    {
      "columns": [],
      "datasource": "${DS_PLOTPAD_ANALYTICS_DEV_VESELOV}",
      "fontSize": "100%",
      "gridPos": {
        "h": 7,
        "w": 24,
        "x": 0,
        "y": 8
      },
      "id": 6,
      "options": {},
      "pageSize": null,
      "showHeader": true,
      "sort": {
        "col": 0,
        "desc": true
      },
      "styles": [
        {
          "alias": "Time",
          "dateFormat": "YYYY-MM-DD HH:mm:ss",
          "pattern": "Time",
          "type": "date"
        },
        {
          "alias": "",
          "colorMode": null,
          "colors": [
            "rgba(245, 54, 54, 0.9)",
            "rgba(237, 129, 40, 0.89)",
            "rgba(50, 172, 45, 0.97)"
          ],
          "decimals": 2,
          "pattern": "/.*/",
          "thresholds": [],
          "type": "number",
          "unit": "short"
        }
      ],
      "targets": [
        {
          "format": "table",
          "group": [],
          "metricColumn": "none",
          "rawQuery": true,
          "rawSql": "SELECT \n  state_from,\n  state_to,\n  count(entity_id)\nFROM plotpad_analytics.entity_state_and_user_changes($__timeFrom(),$__timeTo())\nWHERE assigned_user ='$name'\nGROUP BY state_from,state_to",
          "refId": "A",
          "select": [
            [
              {
                "params": [
                  "value"
                ],
                "type": "column"
              }
            ]
          ],
          "timeColumn": "time",
          "where": [
            {
              "name": "$__timeFilter",
              "params": [],
              "type": "macro"
            }
          ]
        }
      ],
      "timeFrom": null,
      "timeShift": null,
      "title": "Количество изменений статуса замечаний по исполнителю",
      "transform": "table",
      "type": "table"
    }
  ],
  "refresh": false,
  "schemaVersion": 20,
  "style": "dark",
  "tags": [],
  "templating": {
    "list": [
      {
        "allValue": null,
        "current": {},
        "datasource": "${DS_PLOTPAD_ANALYTICS}",
        "definition": "select name from plotpad_analytics.sum_task_authors_by_status",
        "hide": 0,
        "includeAll": false,
        "label": "Имя пользователя",
        "multi": false,
        "name": "name",
        "options": [],
        "query": "select name from plotpad_analytics.sum_task_authors_by_status",
        "refresh": 2,
        "regex": "",
        "skipUrlSync": false,
        "sort": 1,
        "tagValuesQuery": "",
        "tags": [],
        "tagsQuery": "",
        "type": "query",
        "useTags": false
      }
    ]
  },
  "time": {
    "from": "now-2y",
    "to": "2019-05-01T20:59:59.000Z"
  },
  "timepicker": {
    "refresh_intervals": [
      "5s",
      "10s",
      "30s",
      "1m",
      "5m",
      "15m",
      "30m",
      "1h",
      "2h",
      "1d"
    ]
  },
  "timezone": "browser",
  "title": "Количество замечаний по состояниям",
  "uid": "y2gZfN-Wk",
  "version": 20
}